module github.com/mattnolf/ziglu

go 1.16

require (
	github.com/davecgh/go-spew v1.1.1 // indirect
	github.com/golang/mock v1.5.0
	github.com/gorilla/mux v1.8.0
	github.com/kevinburke/go.uuid v1.2.0 // indirect
	github.com/stretchr/testify v1.7.0
	gopkg.in/yaml.v2 v2.4.0
	gopkg.in/yaml.v3 v3.0.0-20210107192922-496545a6307b // indirect
)
